-- Merging decision tree log ---
manifest
ADDED from /Users/sagarhebbale/Desktop/Imversion.nosync/Cityzen/Source/cityzen/android/app/src/main/AndroidManifest.xml:1:1-26:12
INJECTED from /Users/sagarhebbale/Desktop/Imversion.nosync/Cityzen/Source/cityzen/android/app/src/main/AndroidManifest.xml:1:1-26:12
INJECTED from /Users/sagarhebbale/Desktop/Imversion.nosync/Cityzen/Source/cityzen/android/app/src/main/AndroidManifest.xml:1:1-26:12
INJECTED from /Users/sagarhebbale/Desktop/Imversion.nosync/Cityzen/Source/cityzen/android/app/src/main/AndroidManifest.xml:1:1-26:12
MERGED from /Users/sagarhebbale/Desktop/Imversion.nosync/Cityzen/Source/cityzen/android/app/src/main/AndroidManifest.xml:1:1-26:12
MERGED from [:react-native-svg] /Users/sagarhebbale/Desktop/Imversion.nosync/Cityzen/Source/cityzen/node_modules/react-native-svg/android/build/intermediates/library_manifest/debug/AndroidManifest.xml:2:1-9:12
MERGED from [:react-native-vector-icons] /Users/sagarhebbale/Desktop/Imversion.nosync/Cityzen/Source/cityzen/node_modules/react-native-vector-icons/android/build/intermediates/library_manifest/debug/AndroidManifest.xml:2:1-11:12
MERGED from [com.facebook.react:react-native:0.61.5] /Users/sagarhebbale/.gradle/caches/transforms-2/files-2.1/d884487fdfb13cfe76f75de6a3e558b7/AndroidManifest.xml:2:1-13:12
MERGED from [org.webkit:android-jsc:r245459] /Users/sagarhebbale/.gradle/caches/transforms-2/files-2.1/c4bc263237ca2524798eacdca0826a01/AndroidManifest.xml:2:1-11:12
MERGED from [androidx.appcompat:appcompat:1.0.2] /Users/sagarhebbale/.gradle/caches/transforms-2/files-2.1/b316334cb65d81b54728a025d475534d/AndroidManifest.xml:17:1-22:12
MERGED from [com.facebook.fresco:fresco:2.0.0] /Users/sagarhebbale/.gradle/caches/transforms-2/files-2.1/3ce2651624f5763fd4a5f96ffb97f582/AndroidManifest.xml:2:1-9:12
MERGED from [com.facebook.fresco:imagepipeline-okhttp3:2.0.0] /Users/sagarhebbale/.gradle/caches/transforms-2/files-2.1/0e82fb686a9e2634a96d85f1758b452a/AndroidManifest.xml:2:1-9:12
MERGED from [com.facebook.fresco:drawee:2.0.0] /Users/sagarhebbale/.gradle/caches/transforms-2/files-2.1/05300d75138d71793af8a2d782ceb32c/AndroidManifest.xml:2:1-9:12
MERGED from [com.facebook.fresco:nativeimagefilters:2.0.0] /Users/sagarhebbale/.gradle/caches/transforms-2/files-2.1/73455bed9ed6f5eb021b2e32b5b7143c/AndroidManifest.xml:2:1-9:12
MERGED from [com.facebook.fresco:imagepipeline:2.0.0] /Users/sagarhebbale/.gradle/caches/transforms-2/files-2.1/730b6217e3e1a298104c46b9ed280c3a/AndroidManifest.xml:2:1-9:12
MERGED from [com.facebook.fresco:nativeimagetranscoder:2.0.0] /Users/sagarhebbale/.gradle/caches/transforms-2/files-2.1/373bd8194df3e5dad9dd0fd0613fc2f9/AndroidManifest.xml:2:1-9:12
MERGED from [com.facebook.fresco:imagepipeline-base:2.0.0] /Users/sagarhebbale/.gradle/caches/transforms-2/files-2.1/5e0b1122e27600b0bdb1250df04ed400/AndroidManifest.xml:2:1-9:12
MERGED from [com.facebook.soloader:soloader:0.6.0] /Users/sagarhebbale/.gradle/caches/transforms-2/files-2.1/f5e8776eb43cf3cfaad14c9ea98277e4/AndroidManifest.xml:2:1-13:12
MERGED from [androidx.fragment:fragment:1.0.0] /Users/sagarhebbale/.gradle/caches/transforms-2/files-2.1/9bcbe9e4852c221e8a3b468437dbb408/AndroidManifest.xml:17:1-22:12
MERGED from [androidx.vectordrawable:vectordrawable-animated:1.0.0] /Users/sagarhebbale/.gradle/caches/transforms-2/files-2.1/416717efd3160eba065c26c3901a0a48/AndroidManifest.xml:17:1-22:12
MERGED from [androidx.legacy:legacy-support-core-ui:1.0.0] /Users/sagarhebbale/.gradle/caches/transforms-2/files-2.1/cf235f49061459749a3709c926bc424a/AndroidManifest.xml:17:1-22:12
MERGED from [androidx.legacy:legacy-support-core-utils:1.0.0] /Users/sagarhebbale/.gradle/caches/transforms-2/files-2.1/640a01d772e1d605c9a66b6e4603e290/AndroidManifest.xml:17:1-22:12
MERGED from [androidx.vectordrawable:vectordrawable:1.0.1] /Users/sagarhebbale/.gradle/caches/transforms-2/files-2.1/1113623f9e84bb90bec2e4db0c0efba7/AndroidManifest.xml:17:1-22:12
MERGED from [androidx.loader:loader:1.0.0] /Users/sagarhebbale/.gradle/caches/transforms-2/files-2.1/e0ebbc9eb6b9e347769d4efef6fd28fb/AndroidManifest.xml:17:1-22:12
MERGED from [androidx.viewpager:viewpager:1.0.0] /Users/sagarhebbale/.gradle/caches/transforms-2/files-2.1/b8869f8ea12a03dcf636f9ffe816fc30/AndroidManifest.xml:17:1-22:12
MERGED from [androidx.coordinatorlayout:coordinatorlayout:1.0.0] /Users/sagarhebbale/.gradle/caches/transforms-2/files-2.1/83a55edfcc243d320bcdf7ae71920694/AndroidManifest.xml:17:1-22:12
MERGED from [androidx.drawerlayout:drawerlayout:1.0.0] /Users/sagarhebbale/.gradle/caches/transforms-2/files-2.1/e38927c0f458d5b023c3bbf4cc79338c/AndroidManifest.xml:17:1-22:12
MERGED from [androidx.slidingpanelayout:slidingpanelayout:1.0.0] /Users/sagarhebbale/.gradle/caches/transforms-2/files-2.1/0a33c73a143625f7e90863dffa1d0863/AndroidManifest.xml:17:1-22:12
MERGED from [androidx.customview:customview:1.0.0] /Users/sagarhebbale/.gradle/caches/transforms-2/files-2.1/368425233dfe89138d18dbde0b11ce66/AndroidManifest.xml:17:1-22:12
MERGED from [androidx.swiperefreshlayout:swiperefreshlayout:1.0.0] /Users/sagarhebbale/.gradle/caches/transforms-2/files-2.1/ae8cf8570fe2cf475cec221687aa8166/AndroidManifest.xml:17:1-22:12
MERGED from [androidx.asynclayoutinflater:asynclayoutinflater:1.0.0] /Users/sagarhebbale/.gradle/caches/transforms-2/files-2.1/afa7e706f1801657b4cb49e7d6f92951/AndroidManifest.xml:17:1-22:12
MERGED from [androidx.core:core:1.0.1] /Users/sagarhebbale/.gradle/caches/transforms-2/files-2.1/f68cf25c4d947124de1209a9d4d67d27/AndroidManifest.xml:17:1-24:12
MERGED from [androidx.versionedparcelable:versionedparcelable:1.0.0] /Users/sagarhebbale/.gradle/caches/transforms-2/files-2.1/d1b062e47272b19cc1ba9ae1d0f786a3/AndroidManifest.xml:17:1-25:12
MERGED from [androidx.cursoradapter:cursoradapter:1.0.0] /Users/sagarhebbale/.gradle/caches/transforms-2/files-2.1/84ea1a846b472b99bcf9e3c2baf39f31/AndroidManifest.xml:17:1-22:12
MERGED from [androidx.lifecycle:lifecycle-runtime:2.0.0] /Users/sagarhebbale/.gradle/caches/transforms-2/files-2.1/aa60edbe83a72a61c0cdeff87a57d138/AndroidManifest.xml:17:1-22:12
MERGED from [androidx.documentfile:documentfile:1.0.0] /Users/sagarhebbale/.gradle/caches/transforms-2/files-2.1/83e46ba6dab5dc3d692c02a2a9d5b1ca/AndroidManifest.xml:17:1-22:12
MERGED from [androidx.localbroadcastmanager:localbroadcastmanager:1.0.0] /Users/sagarhebbale/.gradle/caches/transforms-2/files-2.1/cfb447d57aa230e9e6e0a5fa8dabca73/AndroidManifest.xml:17:1-22:12
MERGED from [androidx.print:print:1.0.0] /Users/sagarhebbale/.gradle/caches/transforms-2/files-2.1/2f61dd3086dd27175a227df13396b7db/AndroidManifest.xml:17:1-22:12
MERGED from [androidx.lifecycle:lifecycle-viewmodel:2.0.0] /Users/sagarhebbale/.gradle/caches/transforms-2/files-2.1/8462265b9e4dcd3a332134e840e3662c/AndroidManifest.xml:17:1-22:12
MERGED from [androidx.lifecycle:lifecycle-livedata:2.0.0] /Users/sagarhebbale/.gradle/caches/transforms-2/files-2.1/dad1621e1fb9da8f822356f0a45a270e/AndroidManifest.xml:17:1-22:12
MERGED from [androidx.lifecycle:lifecycle-livedata-core:2.0.0] /Users/sagarhebbale/.gradle/caches/transforms-2/files-2.1/9a93166511665a19e3284a45837b6248/AndroidManifest.xml:17:1-22:12
MERGED from [androidx.arch.core:core-runtime:2.0.0] /Users/sagarhebbale/.gradle/caches/transforms-2/files-2.1/3b081714e55ed790ffda36b97e616c1b/AndroidManifest.xml:17:1-22:12
MERGED from [androidx.interpolator:interpolator:1.0.0] /Users/sagarhebbale/.gradle/caches/transforms-2/files-2.1/19e375c3300ee449771245d0b19f67eb/AndroidManifest.xml:17:1-22:12
MERGED from [com.facebook.fresco:fbcore:2.0.0] /Users/sagarhebbale/.gradle/caches/transforms-2/files-2.1/788a98ce6ef1b511d1d76c4501c9d0e1/AndroidManifest.xml:2:1-9:12
INJECTED from /Users/sagarhebbale/Desktop/Imversion.nosync/Cityzen/Source/cityzen/android/app/src/debug/AndroidManifest.xml:2:1-8:12
INJECTED from /Users/sagarhebbale/Desktop/Imversion.nosync/Cityzen/Source/cityzen/android/app/src/debug/AndroidManifest.xml:2:1-8:12
INJECTED from /Users/sagarhebbale/Desktop/Imversion.nosync/Cityzen/Source/cityzen/android/app/src/debug/AndroidManifest.xml:2:1-8:12
	package
		ADDED from /Users/sagarhebbale/Desktop/Imversion.nosync/Cityzen/Source/cityzen/android/app/src/main/AndroidManifest.xml:2:3-34
		INJECTED from /Users/sagarhebbale/Desktop/Imversion.nosync/Cityzen/Source/cityzen/android/app/src/main/AndroidManifest.xml
		ADDED from /Users/sagarhebbale/Desktop/Imversion.nosync/Cityzen/Source/cityzen/android/app/src/main/AndroidManifest.xml:2:3-34
		INJECTED from /Users/sagarhebbale/Desktop/Imversion.nosync/Cityzen/Source/cityzen/android/app/src/debug/AndroidManifest.xml
	android:versionName
		INJECTED from /Users/sagarhebbale/Desktop/Imversion.nosync/Cityzen/Source/cityzen/android/app/src/main/AndroidManifest.xml
		ADDED from /Users/sagarhebbale/Desktop/Imversion.nosync/Cityzen/Source/cityzen/android/app/src/main/AndroidManifest.xml:1:1-26:12
		INJECTED from /Users/sagarhebbale/Desktop/Imversion.nosync/Cityzen/Source/cityzen/android/app/src/debug/AndroidManifest.xml
	xmlns:tools
		ADDED from /Users/sagarhebbale/Desktop/Imversion.nosync/Cityzen/Source/cityzen/android/app/src/debug/AndroidManifest.xml:3:5-51
	android:versionCode
		INJECTED from /Users/sagarhebbale/Desktop/Imversion.nosync/Cityzen/Source/cityzen/android/app/src/main/AndroidManifest.xml
		ADDED from /Users/sagarhebbale/Desktop/Imversion.nosync/Cityzen/Source/cityzen/android/app/src/main/AndroidManifest.xml:1:1-26:12
		INJECTED from /Users/sagarhebbale/Desktop/Imversion.nosync/Cityzen/Source/cityzen/android/app/src/debug/AndroidManifest.xml
	xmlns:android
		ADDED from /Users/sagarhebbale/Desktop/Imversion.nosync/Cityzen/Source/cityzen/android/app/src/main/AndroidManifest.xml:1:11-69
uses-permission#android.permission.INTERNET
ADDED from /Users/sagarhebbale/Desktop/Imversion.nosync/Cityzen/Source/cityzen/android/app/src/main/AndroidManifest.xml:4:5-67
	android:name
		ADDED from /Users/sagarhebbale/Desktop/Imversion.nosync/Cityzen/Source/cityzen/android/app/src/main/AndroidManifest.xml:4:22-64
application
ADDED from /Users/sagarhebbale/Desktop/Imversion.nosync/Cityzen/Source/cityzen/android/app/src/main/AndroidManifest.xml:6:5-24:19
MERGED from /Users/sagarhebbale/Desktop/Imversion.nosync/Cityzen/Source/cityzen/android/app/src/main/AndroidManifest.xml:6:5-24:19
MERGED from /Users/sagarhebbale/Desktop/Imversion.nosync/Cityzen/Source/cityzen/android/app/src/main/AndroidManifest.xml:6:5-24:19
MERGED from [com.facebook.react:react-native:0.61.5] /Users/sagarhebbale/.gradle/caches/transforms-2/files-2.1/d884487fdfb13cfe76f75de6a3e558b7/AndroidManifest.xml:11:5-20
MERGED from [com.facebook.react:react-native:0.61.5] /Users/sagarhebbale/.gradle/caches/transforms-2/files-2.1/d884487fdfb13cfe76f75de6a3e558b7/AndroidManifest.xml:11:5-20
MERGED from [com.facebook.soloader:soloader:0.6.0] /Users/sagarhebbale/.gradle/caches/transforms-2/files-2.1/f5e8776eb43cf3cfaad14c9ea98277e4/AndroidManifest.xml:11:5-20
MERGED from [com.facebook.soloader:soloader:0.6.0] /Users/sagarhebbale/.gradle/caches/transforms-2/files-2.1/f5e8776eb43cf3cfaad14c9ea98277e4/AndroidManifest.xml:11:5-20
MERGED from [androidx.core:core:1.0.1] /Users/sagarhebbale/.gradle/caches/transforms-2/files-2.1/f68cf25c4d947124de1209a9d4d67d27/AndroidManifest.xml:22:5-89
MERGED from [androidx.core:core:1.0.1] /Users/sagarhebbale/.gradle/caches/transforms-2/files-2.1/f68cf25c4d947124de1209a9d4d67d27/AndroidManifest.xml:22:5-89
MERGED from [androidx.versionedparcelable:versionedparcelable:1.0.0] /Users/sagarhebbale/.gradle/caches/transforms-2/files-2.1/d1b062e47272b19cc1ba9ae1d0f786a3/AndroidManifest.xml:22:5-23:19
MERGED from [androidx.versionedparcelable:versionedparcelable:1.0.0] /Users/sagarhebbale/.gradle/caches/transforms-2/files-2.1/d1b062e47272b19cc1ba9ae1d0f786a3/AndroidManifest.xml:22:5-23:19
	android:appComponentFactory
		ADDED from [androidx.core:core:1.0.1] /Users/sagarhebbale/.gradle/caches/transforms-2/files-2.1/f68cf25c4d947124de1209a9d4d67d27/AndroidManifest.xml:22:18-86
	android:label
		ADDED from /Users/sagarhebbale/Desktop/Imversion.nosync/Cityzen/Source/cityzen/android/app/src/main/AndroidManifest.xml:8:7-39
		ADDED from /Users/sagarhebbale/Desktop/Imversion.nosync/Cityzen/Source/cityzen/android/app/src/main/AndroidManifest.xml:8:7-39
	tools:ignore
		ADDED from /Users/sagarhebbale/Desktop/Imversion.nosync/Cityzen/Source/cityzen/android/app/src/debug/AndroidManifest.xml:7:75-114
	android:roundIcon
		ADDED from /Users/sagarhebbale/Desktop/Imversion.nosync/Cityzen/Source/cityzen/android/app/src/main/AndroidManifest.xml:10:7-52
		ADDED from /Users/sagarhebbale/Desktop/Imversion.nosync/Cityzen/Source/cityzen/android/app/src/main/AndroidManifest.xml:10:7-52
	tools:targetApi
		ADDED from /Users/sagarhebbale/Desktop/Imversion.nosync/Cityzen/Source/cityzen/android/app/src/debug/AndroidManifest.xml:7:54-74
	android:icon
		ADDED from /Users/sagarhebbale/Desktop/Imversion.nosync/Cityzen/Source/cityzen/android/app/src/main/AndroidManifest.xml:9:7-41
		ADDED from /Users/sagarhebbale/Desktop/Imversion.nosync/Cityzen/Source/cityzen/android/app/src/main/AndroidManifest.xml:9:7-41
	android:allowBackup
		ADDED from /Users/sagarhebbale/Desktop/Imversion.nosync/Cityzen/Source/cityzen/android/app/src/main/AndroidManifest.xml:11:7-34
		ADDED from /Users/sagarhebbale/Desktop/Imversion.nosync/Cityzen/Source/cityzen/android/app/src/main/AndroidManifest.xml:11:7-34
	android:theme
		ADDED from /Users/sagarhebbale/Desktop/Imversion.nosync/Cityzen/Source/cityzen/android/app/src/main/AndroidManifest.xml:12:7-38
		ADDED from /Users/sagarhebbale/Desktop/Imversion.nosync/Cityzen/Source/cityzen/android/app/src/main/AndroidManifest.xml:12:7-38
	android:usesCleartextTraffic
		ADDED from /Users/sagarhebbale/Desktop/Imversion.nosync/Cityzen/Source/cityzen/android/app/src/debug/AndroidManifest.xml:7:18-53
	android:name
		ADDED from /Users/sagarhebbale/Desktop/Imversion.nosync/Cityzen/Source/cityzen/android/app/src/main/AndroidManifest.xml:7:7-38
		ADDED from /Users/sagarhebbale/Desktop/Imversion.nosync/Cityzen/Source/cityzen/android/app/src/main/AndroidManifest.xml:7:7-38
activity#com.imversion.cityzen.MainActivity
ADDED from /Users/sagarhebbale/Desktop/Imversion.nosync/Cityzen/Source/cityzen/android/app/src/main/AndroidManifest.xml:13:7-22:18
	android:label
		ADDED from /Users/sagarhebbale/Desktop/Imversion.nosync/Cityzen/Source/cityzen/android/app/src/main/AndroidManifest.xml:15:9-41
	android:windowSoftInputMode
		ADDED from /Users/sagarhebbale/Desktop/Imversion.nosync/Cityzen/Source/cityzen/android/app/src/main/AndroidManifest.xml:17:9-51
	android:configChanges
		ADDED from /Users/sagarhebbale/Desktop/Imversion.nosync/Cityzen/Source/cityzen/android/app/src/main/AndroidManifest.xml:16:9-79
	android:name
		ADDED from /Users/sagarhebbale/Desktop/Imversion.nosync/Cityzen/Source/cityzen/android/app/src/main/AndroidManifest.xml:14:9-37
intent-filter#action:name:android.intent.action.MAIN+category:name:android.intent.category.LAUNCHER
ADDED from /Users/sagarhebbale/Desktop/Imversion.nosync/Cityzen/Source/cityzen/android/app/src/main/AndroidManifest.xml:18:9-21:25
action#android.intent.action.MAIN
ADDED from /Users/sagarhebbale/Desktop/Imversion.nosync/Cityzen/Source/cityzen/android/app/src/main/AndroidManifest.xml:19:13-65
	android:name
		ADDED from /Users/sagarhebbale/Desktop/Imversion.nosync/Cityzen/Source/cityzen/android/app/src/main/AndroidManifest.xml:19:21-62
category#android.intent.category.LAUNCHER
ADDED from /Users/sagarhebbale/Desktop/Imversion.nosync/Cityzen/Source/cityzen/android/app/src/main/AndroidManifest.xml:20:13-73
	android:name
		ADDED from /Users/sagarhebbale/Desktop/Imversion.nosync/Cityzen/Source/cityzen/android/app/src/main/AndroidManifest.xml:20:23-70
activity#com.facebook.react.devsupport.DevSettingsActivity
ADDED from /Users/sagarhebbale/Desktop/Imversion.nosync/Cityzen/Source/cityzen/android/app/src/main/AndroidManifest.xml:23:7-84
	android:name
		ADDED from /Users/sagarhebbale/Desktop/Imversion.nosync/Cityzen/Source/cityzen/android/app/src/main/AndroidManifest.xml:23:17-81
uses-sdk
INJECTED from /Users/sagarhebbale/Desktop/Imversion.nosync/Cityzen/Source/cityzen/android/app/src/main/AndroidManifest.xml reason: use-sdk injection requested
INJECTED from /Users/sagarhebbale/Desktop/Imversion.nosync/Cityzen/Source/cityzen/android/app/src/main/AndroidManifest.xml
INJECTED from /Users/sagarhebbale/Desktop/Imversion.nosync/Cityzen/Source/cityzen/android/app/src/main/AndroidManifest.xml
MERGED from [:react-native-svg] /Users/sagarhebbale/Desktop/Imversion.nosync/Cityzen/Source/cityzen/node_modules/react-native-svg/android/build/intermediates/library_manifest/debug/AndroidManifest.xml:5:5-7:41
MERGED from [:react-native-svg] /Users/sagarhebbale/Desktop/Imversion.nosync/Cityzen/Source/cityzen/node_modules/react-native-svg/android/build/intermediates/library_manifest/debug/AndroidManifest.xml:5:5-7:41
MERGED from [:react-native-vector-icons] /Users/sagarhebbale/Desktop/Imversion.nosync/Cityzen/Source/cityzen/node_modules/react-native-vector-icons/android/build/intermediates/library_manifest/debug/AndroidManifest.xml:7:5-9:41
MERGED from [:react-native-vector-icons] /Users/sagarhebbale/Desktop/Imversion.nosync/Cityzen/Source/cityzen/node_modules/react-native-vector-icons/android/build/intermediates/library_manifest/debug/AndroidManifest.xml:7:5-9:41
MERGED from [com.facebook.react:react-native:0.61.5] /Users/sagarhebbale/.gradle/caches/transforms-2/files-2.1/d884487fdfb13cfe76f75de6a3e558b7/AndroidManifest.xml:7:5-9:41
MERGED from [com.facebook.react:react-native:0.61.5] /Users/sagarhebbale/.gradle/caches/transforms-2/files-2.1/d884487fdfb13cfe76f75de6a3e558b7/AndroidManifest.xml:7:5-9:41
MERGED from [org.webkit:android-jsc:r245459] /Users/sagarhebbale/.gradle/caches/transforms-2/files-2.1/c4bc263237ca2524798eacdca0826a01/AndroidManifest.xml:7:5-9:41
MERGED from [org.webkit:android-jsc:r245459] /Users/sagarhebbale/.gradle/caches/transforms-2/files-2.1/c4bc263237ca2524798eacdca0826a01/AndroidManifest.xml:7:5-9:41
MERGED from [androidx.appcompat:appcompat:1.0.2] /Users/sagarhebbale/.gradle/caches/transforms-2/files-2.1/b316334cb65d81b54728a025d475534d/AndroidManifest.xml:20:5-44
MERGED from [androidx.appcompat:appcompat:1.0.2] /Users/sagarhebbale/.gradle/caches/transforms-2/files-2.1/b316334cb65d81b54728a025d475534d/AndroidManifest.xml:20:5-44
MERGED from [com.facebook.fresco:fresco:2.0.0] /Users/sagarhebbale/.gradle/caches/transforms-2/files-2.1/3ce2651624f5763fd4a5f96ffb97f582/AndroidManifest.xml:5:5-7:41
MERGED from [com.facebook.fresco:fresco:2.0.0] /Users/sagarhebbale/.gradle/caches/transforms-2/files-2.1/3ce2651624f5763fd4a5f96ffb97f582/AndroidManifest.xml:5:5-7:41
MERGED from [com.facebook.fresco:imagepipeline-okhttp3:2.0.0] /Users/sagarhebbale/.gradle/caches/transforms-2/files-2.1/0e82fb686a9e2634a96d85f1758b452a/AndroidManifest.xml:5:5-7:41
MERGED from [com.facebook.fresco:imagepipeline-okhttp3:2.0.0] /Users/sagarhebbale/.gradle/caches/transforms-2/files-2.1/0e82fb686a9e2634a96d85f1758b452a/AndroidManifest.xml:5:5-7:41
MERGED from [com.facebook.fresco:drawee:2.0.0] /Users/sagarhebbale/.gradle/caches/transforms-2/files-2.1/05300d75138d71793af8a2d782ceb32c/AndroidManifest.xml:5:5-7:41
MERGED from [com.facebook.fresco:drawee:2.0.0] /Users/sagarhebbale/.gradle/caches/transforms-2/files-2.1/05300d75138d71793af8a2d782ceb32c/AndroidManifest.xml:5:5-7:41
MERGED from [com.facebook.fresco:nativeimagefilters:2.0.0] /Users/sagarhebbale/.gradle/caches/transforms-2/files-2.1/73455bed9ed6f5eb021b2e32b5b7143c/AndroidManifest.xml:5:5-7:41
MERGED from [com.facebook.fresco:nativeimagefilters:2.0.0] /Users/sagarhebbale/.gradle/caches/transforms-2/files-2.1/73455bed9ed6f5eb021b2e32b5b7143c/AndroidManifest.xml:5:5-7:41
MERGED from [com.facebook.fresco:imagepipeline:2.0.0] /Users/sagarhebbale/.gradle/caches/transforms-2/files-2.1/730b6217e3e1a298104c46b9ed280c3a/AndroidManifest.xml:5:5-7:41
MERGED from [com.facebook.fresco:imagepipeline:2.0.0] /Users/sagarhebbale/.gradle/caches/transforms-2/files-2.1/730b6217e3e1a298104c46b9ed280c3a/AndroidManifest.xml:5:5-7:41
MERGED from [com.facebook.fresco:nativeimagetranscoder:2.0.0] /Users/sagarhebbale/.gradle/caches/transforms-2/files-2.1/373bd8194df3e5dad9dd0fd0613fc2f9/AndroidManifest.xml:5:5-7:41
MERGED from [com.facebook.fresco:nativeimagetranscoder:2.0.0] /Users/sagarhebbale/.gradle/caches/transforms-2/files-2.1/373bd8194df3e5dad9dd0fd0613fc2f9/AndroidManifest.xml:5:5-7:41
MERGED from [com.facebook.fresco:imagepipeline-base:2.0.0] /Users/sagarhebbale/.gradle/caches/transforms-2/files-2.1/5e0b1122e27600b0bdb1250df04ed400/AndroidManifest.xml:5:5-7:41
MERGED from [com.facebook.fresco:imagepipeline-base:2.0.0] /Users/sagarhebbale/.gradle/caches/transforms-2/files-2.1/5e0b1122e27600b0bdb1250df04ed400/AndroidManifest.xml:5:5-7:41
MERGED from [com.facebook.soloader:soloader:0.6.0] /Users/sagarhebbale/.gradle/caches/transforms-2/files-2.1/f5e8776eb43cf3cfaad14c9ea98277e4/AndroidManifest.xml:7:5-9:41
MERGED from [com.facebook.soloader:soloader:0.6.0] /Users/sagarhebbale/.gradle/caches/transforms-2/files-2.1/f5e8776eb43cf3cfaad14c9ea98277e4/AndroidManifest.xml:7:5-9:41
MERGED from [androidx.fragment:fragment:1.0.0] /Users/sagarhebbale/.gradle/caches/transforms-2/files-2.1/9bcbe9e4852c221e8a3b468437dbb408/AndroidManifest.xml:20:5-44
MERGED from [androidx.fragment:fragment:1.0.0] /Users/sagarhebbale/.gradle/caches/transforms-2/files-2.1/9bcbe9e4852c221e8a3b468437dbb408/AndroidManifest.xml:20:5-44
MERGED from [androidx.vectordrawable:vectordrawable-animated:1.0.0] /Users/sagarhebbale/.gradle/caches/transforms-2/files-2.1/416717efd3160eba065c26c3901a0a48/AndroidManifest.xml:20:5-44
MERGED from [androidx.vectordrawable:vectordrawable-animated:1.0.0] /Users/sagarhebbale/.gradle/caches/transforms-2/files-2.1/416717efd3160eba065c26c3901a0a48/AndroidManifest.xml:20:5-44
MERGED from [androidx.legacy:legacy-support-core-ui:1.0.0] /Users/sagarhebbale/.gradle/caches/transforms-2/files-2.1/cf235f49061459749a3709c926bc424a/AndroidManifest.xml:20:5-44
MERGED from [androidx.legacy:legacy-support-core-ui:1.0.0] /Users/sagarhebbale/.gradle/caches/transforms-2/files-2.1/cf235f49061459749a3709c926bc424a/AndroidManifest.xml:20:5-44
MERGED from [androidx.legacy:legacy-support-core-utils:1.0.0] /Users/sagarhebbale/.gradle/caches/transforms-2/files-2.1/640a01d772e1d605c9a66b6e4603e290/AndroidManifest.xml:20:5-44
MERGED from [androidx.legacy:legacy-support-core-utils:1.0.0] /Users/sagarhebbale/.gradle/caches/transforms-2/files-2.1/640a01d772e1d605c9a66b6e4603e290/AndroidManifest.xml:20:5-44
MERGED from [androidx.vectordrawable:vectordrawable:1.0.1] /Users/sagarhebbale/.gradle/caches/transforms-2/files-2.1/1113623f9e84bb90bec2e4db0c0efba7/AndroidManifest.xml:20:5-44
MERGED from [androidx.vectordrawable:vectordrawable:1.0.1] /Users/sagarhebbale/.gradle/caches/transforms-2/files-2.1/1113623f9e84bb90bec2e4db0c0efba7/AndroidManifest.xml:20:5-44
MERGED from [androidx.loader:loader:1.0.0] /Users/sagarhebbale/.gradle/caches/transforms-2/files-2.1/e0ebbc9eb6b9e347769d4efef6fd28fb/AndroidManifest.xml:20:5-44
MERGED from [androidx.loader:loader:1.0.0] /Users/sagarhebbale/.gradle/caches/transforms-2/files-2.1/e0ebbc9eb6b9e347769d4efef6fd28fb/AndroidManifest.xml:20:5-44
MERGED from [androidx.viewpager:viewpager:1.0.0] /Users/sagarhebbale/.gradle/caches/transforms-2/files-2.1/b8869f8ea12a03dcf636f9ffe816fc30/AndroidManifest.xml:20:5-44
MERGED from [androidx.viewpager:viewpager:1.0.0] /Users/sagarhebbale/.gradle/caches/transforms-2/files-2.1/b8869f8ea12a03dcf636f9ffe816fc30/AndroidManifest.xml:20:5-44
MERGED from [androidx.coordinatorlayout:coordinatorlayout:1.0.0] /Users/sagarhebbale/.gradle/caches/transforms-2/files-2.1/83a55edfcc243d320bcdf7ae71920694/AndroidManifest.xml:20:5-44
MERGED from [androidx.coordinatorlayout:coordinatorlayout:1.0.0] /Users/sagarhebbale/.gradle/caches/transforms-2/files-2.1/83a55edfcc243d320bcdf7ae71920694/AndroidManifest.xml:20:5-44
MERGED from [androidx.drawerlayout:drawerlayout:1.0.0] /Users/sagarhebbale/.gradle/caches/transforms-2/files-2.1/e38927c0f458d5b023c3bbf4cc79338c/AndroidManifest.xml:20:5-44
MERGED from [androidx.drawerlayout:drawerlayout:1.0.0] /Users/sagarhebbale/.gradle/caches/transforms-2/files-2.1/e38927c0f458d5b023c3bbf4cc79338c/AndroidManifest.xml:20:5-44
MERGED from [androidx.slidingpanelayout:slidingpanelayout:1.0.0] /Users/sagarhebbale/.gradle/caches/transforms-2/files-2.1/0a33c73a143625f7e90863dffa1d0863/AndroidManifest.xml:20:5-44
MERGED from [androidx.slidingpanelayout:slidingpanelayout:1.0.0] /Users/sagarhebbale/.gradle/caches/transforms-2/files-2.1/0a33c73a143625f7e90863dffa1d0863/AndroidManifest.xml:20:5-44
MERGED from [androidx.customview:customview:1.0.0] /Users/sagarhebbale/.gradle/caches/transforms-2/files-2.1/368425233dfe89138d18dbde0b11ce66/AndroidManifest.xml:20:5-44
MERGED from [androidx.customview:customview:1.0.0] /Users/sagarhebbale/.gradle/caches/transforms-2/files-2.1/368425233dfe89138d18dbde0b11ce66/AndroidManifest.xml:20:5-44
MERGED from [androidx.swiperefreshlayout:swiperefreshlayout:1.0.0] /Users/sagarhebbale/.gradle/caches/transforms-2/files-2.1/ae8cf8570fe2cf475cec221687aa8166/AndroidManifest.xml:20:5-44
MERGED from [androidx.swiperefreshlayout:swiperefreshlayout:1.0.0] /Users/sagarhebbale/.gradle/caches/transforms-2/files-2.1/ae8cf8570fe2cf475cec221687aa8166/AndroidManifest.xml:20:5-44
MERGED from [androidx.asynclayoutinflater:asynclayoutinflater:1.0.0] /Users/sagarhebbale/.gradle/caches/transforms-2/files-2.1/afa7e706f1801657b4cb49e7d6f92951/AndroidManifest.xml:20:5-44
MERGED from [androidx.asynclayoutinflater:asynclayoutinflater:1.0.0] /Users/sagarhebbale/.gradle/caches/transforms-2/files-2.1/afa7e706f1801657b4cb49e7d6f92951/AndroidManifest.xml:20:5-44
MERGED from [androidx.core:core:1.0.1] /Users/sagarhebbale/.gradle/caches/transforms-2/files-2.1/f68cf25c4d947124de1209a9d4d67d27/AndroidManifest.xml:20:5-44
MERGED from [androidx.core:core:1.0.1] /Users/sagarhebbale/.gradle/caches/transforms-2/files-2.1/f68cf25c4d947124de1209a9d4d67d27/AndroidManifest.xml:20:5-44
MERGED from [androidx.versionedparcelable:versionedparcelable:1.0.0] /Users/sagarhebbale/.gradle/caches/transforms-2/files-2.1/d1b062e47272b19cc1ba9ae1d0f786a3/AndroidManifest.xml:20:5-44
MERGED from [androidx.versionedparcelable:versionedparcelable:1.0.0] /Users/sagarhebbale/.gradle/caches/transforms-2/files-2.1/d1b062e47272b19cc1ba9ae1d0f786a3/AndroidManifest.xml:20:5-44
MERGED from [androidx.cursoradapter:cursoradapter:1.0.0] /Users/sagarhebbale/.gradle/caches/transforms-2/files-2.1/84ea1a846b472b99bcf9e3c2baf39f31/AndroidManifest.xml:20:5-44
MERGED from [androidx.cursoradapter:cursoradapter:1.0.0] /Users/sagarhebbale/.gradle/caches/transforms-2/files-2.1/84ea1a846b472b99bcf9e3c2baf39f31/AndroidManifest.xml:20:5-44
MERGED from [androidx.lifecycle:lifecycle-runtime:2.0.0] /Users/sagarhebbale/.gradle/caches/transforms-2/files-2.1/aa60edbe83a72a61c0cdeff87a57d138/AndroidManifest.xml:20:5-44
MERGED from [androidx.lifecycle:lifecycle-runtime:2.0.0] /Users/sagarhebbale/.gradle/caches/transforms-2/files-2.1/aa60edbe83a72a61c0cdeff87a57d138/AndroidManifest.xml:20:5-44
MERGED from [androidx.documentfile:documentfile:1.0.0] /Users/sagarhebbale/.gradle/caches/transforms-2/files-2.1/83e46ba6dab5dc3d692c02a2a9d5b1ca/AndroidManifest.xml:20:5-44
MERGED from [androidx.documentfile:documentfile:1.0.0] /Users/sagarhebbale/.gradle/caches/transforms-2/files-2.1/83e46ba6dab5dc3d692c02a2a9d5b1ca/AndroidManifest.xml:20:5-44
MERGED from [androidx.localbroadcastmanager:localbroadcastmanager:1.0.0] /Users/sagarhebbale/.gradle/caches/transforms-2/files-2.1/cfb447d57aa230e9e6e0a5fa8dabca73/AndroidManifest.xml:20:5-44
MERGED from [androidx.localbroadcastmanager:localbroadcastmanager:1.0.0] /Users/sagarhebbale/.gradle/caches/transforms-2/files-2.1/cfb447d57aa230e9e6e0a5fa8dabca73/AndroidManifest.xml:20:5-44
MERGED from [androidx.print:print:1.0.0] /Users/sagarhebbale/.gradle/caches/transforms-2/files-2.1/2f61dd3086dd27175a227df13396b7db/AndroidManifest.xml:20:5-44
MERGED from [androidx.print:print:1.0.0] /Users/sagarhebbale/.gradle/caches/transforms-2/files-2.1/2f61dd3086dd27175a227df13396b7db/AndroidManifest.xml:20:5-44
MERGED from [androidx.lifecycle:lifecycle-viewmodel:2.0.0] /Users/sagarhebbale/.gradle/caches/transforms-2/files-2.1/8462265b9e4dcd3a332134e840e3662c/AndroidManifest.xml:20:5-44
MERGED from [androidx.lifecycle:lifecycle-viewmodel:2.0.0] /Users/sagarhebbale/.gradle/caches/transforms-2/files-2.1/8462265b9e4dcd3a332134e840e3662c/AndroidManifest.xml:20:5-44
MERGED from [androidx.lifecycle:lifecycle-livedata:2.0.0] /Users/sagarhebbale/.gradle/caches/transforms-2/files-2.1/dad1621e1fb9da8f822356f0a45a270e/AndroidManifest.xml:20:5-44
MERGED from [androidx.lifecycle:lifecycle-livedata:2.0.0] /Users/sagarhebbale/.gradle/caches/transforms-2/files-2.1/dad1621e1fb9da8f822356f0a45a270e/AndroidManifest.xml:20:5-44
MERGED from [androidx.lifecycle:lifecycle-livedata-core:2.0.0] /Users/sagarhebbale/.gradle/caches/transforms-2/files-2.1/9a93166511665a19e3284a45837b6248/AndroidManifest.xml:20:5-44
MERGED from [androidx.lifecycle:lifecycle-livedata-core:2.0.0] /Users/sagarhebbale/.gradle/caches/transforms-2/files-2.1/9a93166511665a19e3284a45837b6248/AndroidManifest.xml:20:5-44
MERGED from [androidx.arch.core:core-runtime:2.0.0] /Users/sagarhebbale/.gradle/caches/transforms-2/files-2.1/3b081714e55ed790ffda36b97e616c1b/AndroidManifest.xml:20:5-44
MERGED from [androidx.arch.core:core-runtime:2.0.0] /Users/sagarhebbale/.gradle/caches/transforms-2/files-2.1/3b081714e55ed790ffda36b97e616c1b/AndroidManifest.xml:20:5-44
MERGED from [androidx.interpolator:interpolator:1.0.0] /Users/sagarhebbale/.gradle/caches/transforms-2/files-2.1/19e375c3300ee449771245d0b19f67eb/AndroidManifest.xml:20:5-44
MERGED from [androidx.interpolator:interpolator:1.0.0] /Users/sagarhebbale/.gradle/caches/transforms-2/files-2.1/19e375c3300ee449771245d0b19f67eb/AndroidManifest.xml:20:5-44
MERGED from [com.facebook.fresco:fbcore:2.0.0] /Users/sagarhebbale/.gradle/caches/transforms-2/files-2.1/788a98ce6ef1b511d1d76c4501c9d0e1/AndroidManifest.xml:5:5-7:41
MERGED from [com.facebook.fresco:fbcore:2.0.0] /Users/sagarhebbale/.gradle/caches/transforms-2/files-2.1/788a98ce6ef1b511d1d76c4501c9d0e1/AndroidManifest.xml:5:5-7:41
INJECTED from /Users/sagarhebbale/Desktop/Imversion.nosync/Cityzen/Source/cityzen/android/app/src/debug/AndroidManifest.xml
INJECTED from /Users/sagarhebbale/Desktop/Imversion.nosync/Cityzen/Source/cityzen/android/app/src/debug/AndroidManifest.xml
	android:targetSdkVersion
		INJECTED from /Users/sagarhebbale/Desktop/Imversion.nosync/Cityzen/Source/cityzen/android/app/src/main/AndroidManifest.xml
		INJECTED from /Users/sagarhebbale/Desktop/Imversion.nosync/Cityzen/Source/cityzen/android/app/src/debug/AndroidManifest.xml
	android:minSdkVersion
		INJECTED from /Users/sagarhebbale/Desktop/Imversion.nosync/Cityzen/Source/cityzen/android/app/src/main/AndroidManifest.xml
		INJECTED from /Users/sagarhebbale/Desktop/Imversion.nosync/Cityzen/Source/cityzen/android/app/src/debug/AndroidManifest.xml
uses-permission#android.permission.SYSTEM_ALERT_WINDOW
ADDED from /Users/sagarhebbale/Desktop/Imversion.nosync/Cityzen/Source/cityzen/android/app/src/debug/AndroidManifest.xml:5:5-77
	android:name
		ADDED from /Users/sagarhebbale/Desktop/Imversion.nosync/Cityzen/Source/cityzen/android/app/src/debug/AndroidManifest.xml:5:22-75
